Add default cat2cat columns to a `data.frame` — dummy_c2c • cat2cat
…
cat_var
`character` a categorical variable name.

ml
`character` vector of ml models applied, any of `c("wei_knn_c2c", "wei_rf_c2c", "wei_lda_c2c")`.

    Examples

data(occup_small)
data(occup)
data(trans)

occup_old <- occup_small[occup_small$year == 2008, ]
dummy_c2c(occup_old, "code")
#> # A tibble: 1,957 × 17
#>       id   age sex     edu   exp district parttime salary code  multiplier  year
#>    <int> <dbl> <lgl> <int> <dbl>    <int>    <dbl>  <dbl> <chr>      <dbl> <int>
#>  1 16543  37.4 TRUE      1 12.4         8        1 1.18e5 2471        515.  2008
#>  2 16546  59.5 FALSE     1 16.5         8        1 2.09e4 3482        432.  2008
#>  3 16557  59.3 FALSE     1 35.4         8        1 4.69e4 2311        531.  2008
#>  4 16558  36.8 FALSE     1 15.5         8        1 2.31e4 2114        501.  2008
#>  5 16559  57.4 TRUE      1 30.4         8        1 5.53e4 2311        599.  2008
#>  6 16563  42.1 FALSE     1 19.8         8        1 4.11e4 2311        585.  2008
#>  7 16564  42.7 FALSE     1 19.7         8        1 4.90e4 2311        539.  2008
#>  8 16565  32.4 FALSE     1  8.31        8        1 5.08e4 2311        491.  2008
#>  9 16566  61.0 FALSE     1 38.1         8        1 5.37e4 2311        533.  2008
#> 10 16575  37.8 FALSE     1 13.3         6        1 2.67e4 2311        438.  2008
#> # … with 1,947 more rows, and 6 more variables: code4 <chr>, index_c2c <int>,
#> #   g_new_c2c <chr>, wei_freq_c2c <dbl>, rep_c2c <dbl>, wei_naive_c2c <dbl>
…
