Get Started • cat2cat
…
## possible processing
library(dplyr)
agg %>%
    bind_rows() %>%
    group_by(v_date, vertical) %>%
    summarise(sales = sum(sales * prop_c2c),
              counts = sum(counts * prop_c2c),
              v_date = first(v_date), 
              .groups = "drop")

## # A tibble: 22 × 4
##    v_date     vertical    sales  counts
##    <chr>      <chr>       <dbl>   <dbl>
##  1 2020-04-01 Automotive1  49.4    87.1
##  2 2020-04-01 Automotive2  27.2    47.9
##  3 2020-04-01 Books       104.   7489  
##  4 2020-04-01 Clothes     105.   1078  
##  5 2020-04-01 Electronics  87.9  9544  
##  6 2020-04-01 Fashion      94.5  7399  
##  7 2020-04-01 Health       94.4 16102  
##  8 2020-04-01 Home         94.3  2414  
##  9 2020-04-01 Kids1       103.  17686  
## 10 2020-04-01 Kids2       111.  32349  
## # … with 12 more rows
…
