cat2cat - Introduction • cat2cat
…
Splitting the data

occup_old = occup[occup$year == 2008,]
occup_new = occup[occup$year == 2010,]

Simple model where probabilities will be taken from categories frequencies.

cat2cat(
  data = list(old = occup_old ,new = occup_new, cat_var = "code", time_var = "year"),
  mappings = list(trans = trans, direction = "forward")
  )

## $old
## # A tibble: 34,176 × 17
##       id   age sex     edu   exp district parttime salary code  multiplier  year
##    <int> <dbl> <lgl> <int> <dbl>    <int>    <dbl>  <dbl> <chr>      <dbl> <int>
##  1     1  49.3 FALSE     1 26.5         8    1     9.47e4 2471        223.  2008
##  2     2  34.0 FALSE     1  7.54        8    1     6.76e4 2471        279.  2008
##  3     3  31.0 TRUE      1  7.48        8    0.333 1.79e4 2471        240.  2008
##  4     4  55.3 TRUE      1 24.8         8    1     2.62e5 1112        234.  2008
##  5     5  34.1 TRUE      1 10.1         8    1     8.45e4 2471        254.  2008
##  6     6  35.2 FALSE     1 11.2         8    1     9.40e4 2479        262.  2008
##  7     7  32.4 FALSE     1  8.50        8    1     6.53e4 3431        256.  2008
##  8     8  48.0 TRUE      1 24.5         8    1     2.62e5 1112        251.  2008
##  9     9  51.0 FALSE     4 32.0         8    1     4.95e4 3431        259.  2008
## 10    10  69.6 FALSE     1 44.6         8    1     1.75e5 2422        245.  2008
## # … with 34,166 more rows, and 6 more variables: code4 <chr>, index_c2c <int>,
## #   g_new_c2c <chr>, wei_freq_c2c <dbl>, rep_c2c <dbl>, wei_naive_c2c <dbl>
## 
## $new
## # A tibble: 36,850 × 17
##       id   age sex     edu   exp district parttime salary code  multiplier  year
##    <int> <dbl> <lgl> <int> <dbl>    <int>    <dbl>  <dbl> <chr>      <dbl> <int>
##  1 34177  52.5 TRUE      1 29.5         8     1    9.39e4 1213…       240.  2010
##  2 34178  56.1 FALSE     6 35.7         8     0.67 2.81e4 9112…       265.  2010
##  3 34179  28.4 FALSE     1  6.36        8     1    4.35e4 4226…       232.  2010
##  4 34180  43.7 FALSE     5 23.0         8     1    3.37e4 9112…       225.  2010
##  5 34181  55.0 TRUE      6 34.6         6     1    7.27e4 8322…       230.  2010
##  6 34182  54.1 FALSE     4 27.9         8     1    4.73e4 3343…       215.  2010
##  7 34183  62.6 FALSE     8 24.6         8     1    2.15e4 9112…       221.  2010
##  8 34184  31.2 FALSE     1  6.37        8     1    7.53e4 2611…       202.  2010
##  9 34185  40.6 TRUE      1 18.9         8     1    1.02e5 2611…       255.  2010
## 10 34186  25.0 TRUE      5  5.82        8     1    2.11e4 9629…       226.  2010
## # … with 36,840 more rows, and 6 more variables: code4 <chr>, index_c2c <int>,
## #   g_new_c2c <chr>, wei_freq_c2c <dbl>, rep_c2c <int>, wei_naive_c2c <dbl>
…
